{"deleted_tickets":[{"id":896,"subject":"ticket with ticket form id","description":"testing requester","actor":{"id":281513402,"name":"Elizabeth"},"deleted_at":"2019-12-10T07:44:21Z","previous_state":"new"},{"id":902,"subject":"ticket with ticket form id","description":"testing requester","actor":{"id":281513402,"name":"Elizabeth"},"deleted_at":"2019-12-10T07:44:21Z","previous_state":"new"},{"id":903,"subject":"macro test ticket","description":"Testing macros","actor":{"id":281513402,"name":"Elizabeth"},"deleted_at":"2019-12-10T07:44:21Z","previous_state":"new"},{"id":25513,"subject":"my printer is on fire","description":"test description","actor":{"id":281513402,"name":"Elizabeth"},"deleted_at":"2019-11-15T14:02:28Z","previous_state":"solved"},{"id":25514,"subject":"my printer is on fire","description":"test description","actor":{"id":281513402,"name":"Elizabeth"},"deleted_at":"2019-11-15T14:02:30Z","previous_state":"solved"},{"id":25533,"subject":"my printer is on fire","description":"test description","actor":{"id":281513402,"name":"Elizabeth"},"deleted_at":"2019-11-15T14:04:03Z","previous_state":"solved"},{"id":25547,"subject":"my printer is on fire","description":"test description","actor":{"id":281513402,"name":"Elizabeth"},"deleted_at":"2019-11-15T14:29:59Z","previous_state":"solved"},{"id":25548,"subject":"my printer is on fire","description":"test description","actor":{"id":281513402,"name":"Elizabeth"},"deleted_at":"2019-11-15T14:30:00Z","previous_state":"solved"},{"id":25567,"subject":"my printer is on fire","description":"test description","actor":{"id":281513402,"name":"Elizabeth"},"deleted_at":"2019-11-15T14:31:27Z","previous_state":"solved"},{"id":25582,"subject":"my printer is on fire","description":"test description","actor":{"id":281513402,"name":"Elizabeth"},"deleted_at":"2019-11-18T15:34:35Z","previous_state":"solved"},{"id":25583,"subject":"my printer is on fire","description":"test description","actor":{"id":281513402,"name":"Elizabeth"},"deleted_at":"2019-11-18T15:34:36Z","previous_state":"solved"},{"id":25602,"subject":"my printer is on fire","description":"test description","actor":{"id":281513402,"name":"Elizabeth"},"deleted_at":"2019-11-18T15:35:44Z","previous_state":"solved"},{"id":25615,"subject":"my printer is on fire","description":"test description","actor":{"id":281513402,"name":"Elizabeth"},"deleted_at":"2019-11-19T08:29:14Z","previous_state":"solved"},{"id":25616,"subject":"my printer is on fire","description":"test description","actor":{"id":281513402,"name":"Elizabeth"},"deleted_at":"2019-11-19T08:29:15Z","previous_state":"solved"},{"id":25635,"subject":"my printer is on fire","description":"test description","actor":{"id":281513402,"name":"Elizabeth"},"deleted_at":"2019-11-19T08:30:39Z","previous_state":"solved"},{"id":25646,"subject":"my printer is on fire","description":"test description","actor":{"id":281513402,"name":"Elizabeth"},"deleted_at":"2019-11-19T10:49:08Z","previous_state":"solved"},{"id":25647,"subject":"my printer is on fire","description":"test description","actor":{"id":281513402,"name":"Elizabeth"},"deleted_at":"2019-11-19T10:49:09Z","previous_state":"solved"},{"id":25666,"subject":"my printer is on fire","description":"test description","actor":{"id":281513402,"name":"Elizabeth"},"deleted_at":"2019-11-19T10:50:05Z","previous_state":"solved"},{"id":25681,"subject":"my printer is on fire","description":"test description","actor":{"id":281513402,"name":"Elizabeth"},"deleted_at":"2019-11-19T10:59:20Z","previous_state":"solved"},{"id":25682,"subject":"my printer is on fire","description":"test description","actor":{"id":281513402,"name":"Elizabeth"},"deleted_at":"2019-11-19T10:59:21Z","previous_state":"solved"},{"id":25701,"subject":"my printer is on fire","description":"test description","actor":{"id":281513402,"name":"Elizabeth"},"deleted_at":"2019-11-19T11:00:46Z","previous_state":"solved"},{"id":25716,"subject":"my printer is on fire","description":"test description","actor":{"id":281513402,"name":"Elizabeth"},"deleted_at":"2019-11-19T12:17:07Z","previous_state":"solved"},{"id":25717,"subject":"my printer is on fire","description":"test description","actor":{"id":281513402,"name":"Elizabeth"},"deleted_at":"2019-11-19T12:17:07Z","previous_state":"solved"},{"id":25736,"subject":"my printer is on fire","description":"test description","actor":{"id":281513402,"name":"Elizabeth"},"deleted_at":"2019-11-19T12:18:04Z","previous_state":"solved"},{"id":25751,"subject":"my printer is on fire","description":"test description","actor":{"id":281513402,"name":"Elizabeth"},"deleted_at":"2019-11-19T12:30:01Z","previous_state":"solved"},{"id":25752,"subject":"my printer is on fire","description":"test description","actor":{"id":281513402,"name":"Elizabeth"},"deleted_at":"2019-11-19T12:30:02Z","previous_state":"solved"},{"id":25771,"subject":"my printer is on fire","description":"test description","actor":{"id":281513402,"name":"Elizabeth"},"deleted_at":"2019-11-19T12:31:03Z","previous_state":"solved"},{"id":25786,"subject":"my printer is on fire","description":"test description","actor":{"id":281513402,"name":"Elizabeth"},"deleted_at":"2019-11-19T12:45:23Z","previous_state":"solved"},{"id":25787,"subject":"my printer is on fire","description":"test description","actor":{"id":281513402,"name":"Elizabeth"},"deleted_at":"2019-11-19T12:45:24Z","previous_state":"solved"},{"id":25806,"subject":"my printer is on fire","description":"test description","actor":{"id":281513402,"name":"Elizabeth"},"deleted_at":"2019-11-19T12:46:29Z","previous_state":"solved"},{"id":25821,"subject":"my printer is on fire","description":"test description","actor":{"id":281513402,"name":"Elizabeth"},"deleted_at":"2019-11-19T14:55:02Z","previous_state":"solved"},{"id":25822,"subject":"my printer is on fire","description":"test description","actor":{"id":281513402,"name":"Elizabeth"},"deleted_at":"2019-11-19T14:55:03Z","previous_state":"solved"},{"id":25841,"subject":"my printer is on fire","description":"test description","actor":{"id":281513402,"name":"Elizabeth"},"deleted_at":"2019-11-19T14:56:10Z","previous_state":"solved"},{"id":25889,"subject":"my printer is on fire","description":"test description","actor":{"id":281513402,"name":"Elizabeth"},"deleted_at":"2019-11-19T17:24:00Z","previous_state":"solved"},{"id":25890,"subject":"my printer is on fire","description":"test description","actor":{"id":281513402,"name":"Elizabeth"},"deleted_at":"2019-11-19T17:24:00Z","previous_state":"solved"},{"id":25909,"subject":"my printer is on fire","description":"test description","actor":{"id":281513402,"name":"Elizabeth"},"deleted_at":"2019-11-19T17:25:01Z","previous_state":"solved"},{"id":25506,"subject":"testing attachments","description":"comments are required for attachments","actor":{"id":281513402,"name":"Elizabeth"},"deleted_at":"2019-11-15T13:38:43Z","previous_state":"new"},{"id":25507,"subject":"testing attachments","description":"comments are required for attachments","actor":{"id":281513402,"name":"Elizabeth"},"deleted_at":"2019-11-15T13:41:05Z","previous_state":"new"},{"id":25508,"subject":"testing attachments","description":"comments are required for attachments","actor":{"id":281513402,"name":"Elizabeth"},"deleted_at":"2019-11-15T13:57:41Z","previous_state":"new"},{"id":25509,"subject":"macro test ticket","description":"Testing macros","actor":{"id":281513402,"name":"Elizabeth"},"deleted_at":"2019-11-15T14:00:43Z","previous_state":"new"},{"id":25510,"subject":"my printer is on fire","description":"HELP","actor":{"id":281513402,"name":"Elizabeth"},"deleted_at":"2019-11-15T14:02:17Z","previous_state":"new"},{"id":25511,"subject":"testing attachments","description":"comments are required for attachments","actor":{"id":281513402,"name":"Elizabeth"},"deleted_at":"2019-11-15T14:02:20Z","previous_state":"new"},{"id":25512,"subject":"testing attachments","description":"comments are required for attachments","actor":{"id":281513402,"name":"Elizabeth"},"deleted_at":"2019-11-15T14:02:23Z","previous_state":"new"},{"id":25515,"subject":"testing bulk update","description":"HELP","actor":{"id":281513402,"name":"Elizabeth"},"deleted_at":"2019-11-15T14:02:33Z","previous_state":"solved"},{"id":25516,"subject":"more testing for bulk update","description":"Bulk UpdateTicket testing","actor":{"id":281513402,"name":"Elizabeth"},"deleted_at":"2019-11-15T14:02:33Z","previous_state":"solved"},{"id":25517,"subject":"ticket Test number 1","description":"testing create Many","actor":{"id":281513402,"name":"Elizabeth"},"deleted_at":"2019-11-15T14:02:40Z","previous_state":"new"},{"id":25518,"subject":"ticket Test number 2","description":"testing create Many","actor":{"id":281513402,"name":"Elizabeth"},"deleted_at":"2019-11-15T14:02:41Z","previous_state":"new"},{"id":25519,"subject":"ticket Test number 1","description":"testing create Many","actor":{"id":281513402,"name":"Elizabeth"},"deleted_at":"2019-11-15T14:02:45Z","previous_state":"new"},{"id":25520,"subject":"ticket Test number 2","description":"testing create Many","actor":{"id":281513402,"name":"Elizabeth"},"deleted_at":"2019-11-15T14:02:46Z","previous_state":"new"},{"id":25521,"subject":"ticket with due date","description":"test comment","actor":{"id":281513402,"name":"Elizabeth"},"deleted_at":"2019-11-15T14:02:51Z","previous_state":"new"},{"id":25522,"subject":"ticket with requester","description":"testing requester","actor":{"id":281513402,"name":"Elizabeth"},"deleted_at":"2019-11-15T14:02:53Z","previous_state":"new"},{"id":25523,"subject":"ticket with requester","description":"testing requester","actor":{"id":281513402,"name":"Elizabeth"},"deleted_at":"2019-11-15T14:02:54Z","previous_state":"new"},{"id":25524,"subject":"ticket with ticket form id","description":"testing requester","actor":{"id":281513402,"name":"Elizabeth"},"deleted_at":"2019-11-15T14:02:56Z","previous_state":"new"},{"id":25525,"subject":"my printer is on fire","description":"HELP\nHELP On a New line.","actor":{"id":281513402,"name":"Elizabeth"},"deleted_at":"2019-11-15T14:02:59Z","previous_state":"solved"},{"id":25526,"subject":"my printer is on fire","description":"HELP","actor":{"id":281513402,"name":"Elizabeth"},"deleted_at":"2019-11-15T14:03:03Z","previous_state":"solved"},{"id":25527,"subject":null,"description":"This is a Brand id Test","actor":{"id":281513402,"name":"Elizabeth"},"deleted_at":"2019-11-15T14:03:21Z","previous_state":"new"},{"id":25528,"subject":"test problem","description":"testing incidents with problems","actor":{"id":281513402,"name":"Elizabeth"},"deleted_at":"2019-11-15T14:03:26Z","previous_state":"new"},{"id":25529,"subject":"incident","description":"testing incidents","actor":{"id":281513402,"name":"Elizabeth"},"deleted_at":"2019-11-15T14:03:26Z","previous_state":"new"},{"id":25530,"subject":"my printer is on fire","description":"HELP","actor":{"id":281513402,"name":"Elizabeth"},"deleted_at":"2019-11-15T14:03:29Z","previous_state":"new"},{"id":25531,"subject":"my printer is on fire","description":"HELP","actor":{"id":281513402,"name":"Elizabeth"},"deleted_at":"2019-11-15T14:03:30Z","previous_state":"new"},{"id":25532,"subject":"test problem","description":"testing incidents with problems","actor":{"id":281513402,"name":"Elizabeth"},"deleted_at":"2019-11-15T14:03:37Z","previous_state":"new"},{"id":25535,"subject":null,"description":"This is a Test","actor":{"id":281513402,"name":"Elizabeth"},"deleted_at":"2019-11-15T14:04:09Z","previous_state":"closed"},{"id":25536,"subject":"This is a Test Follow up","description":"HELP","actor":{"id":281513402,"name":"Elizabeth"},"deleted_at":"2019-11-15T14:04:08Z","previous_state":"new"},{"id":25537,"subject":"my printer is on fire","description":"HELP","actor":{"id":281513402,"name":"Elizabeth"},"deleted_at":"2019-11-15T14:04:14Z","previous_state":"new"},{"id":25538,"subject":"Batch Update Ticket 1","description":"HELP","actor":{"id":281513402,"name":"Elizabeth"},"deleted_at":"2019-11-15T14:04:21Z","previous_state":"pending"},{"id":25539,"subject":"Batch Update Ticket 2","description":"HELP","actor":{"id":281513402,"name":"Elizabeth"},"deleted_at":"2019-11-15T14:04:22Z","previous_state":"pending"},{"id":25540,"subject":"my printer is on fire","description":"HELP","actor":{"id":281513402,"name":"Elizabeth"},"deleted_at":"2019-11-15T14:04:26Z","previous_state":"new"},{"id":25541,"subject":"my printer is on fire","description":"HELP","actor":{"id":281513402,"name":"Elizabeth"},"deleted_at":"2019-11-15T14:04:29Z","previous_state":"new"},{"id":25542,"subject":"my printer is on fire","description":"HELP","actor":{"id":281513402,"name":"Elizabeth"},"deleted_at":"2019-11-15T14:04:32Z","previous_state":"new"},{"id":25543,"subject":"testing attachments","description":"comments are required for attachments","actor":{"id":281513402,"name":"Elizabeth"},"deleted_at":"2019-11-15T14:25:23Z","previous_state":"new"},{"id":25544,"subject":"macro test ticket","description":"Testing macros","actor":{"id":281513402,"name":"Elizabeth"},"deleted_at":"2019-11-15T14:28:20Z","previous_state":"new"},{"id":25545,"subject":"my printer is on fire","description":"HELP","actor":{"id":281513402,"name":"Elizabeth"},"deleted_at":"2019-11-15T14:29:47Z","previous_state":"new"},{"id":25546,"subject":"testing attachments","description":"comments are required for attachments","actor":{"id":281513402,"name":"Elizabeth"},"deleted_at":"2019-11-15T14:29:50Z","previous_state":"new"},{"id":25550,"subject":"more testing for bulk update","description":"Bulk UpdateTicket testing","actor":{"id":281513402,"name":"Elizabeth"},"deleted_at":"2019-11-15T14:30:03Z","previous_state":"new"},{"id":25551,"subject":"ticket Test number 1","description":"testing create Many","actor":{"id":281513402,"name":"Elizabeth"},"deleted_at":"2019-11-15T14:30:10Z","previous_state":"new"},{"id":25552,"subject":"ticket Test number 2","description":"testing create Many","actor":{"id":281513402,"name":"Elizabeth"},"deleted_at":"2019-11-15T14:30:11Z","previous_state":"new"},{"id":25553,"subject":"ticket Test number 1","description":"testing create Many","actor":{"id":281513402,"name":"Elizabeth"},"deleted_at":"2019-11-15T14:30:15Z","previous_state":"new"},{"id":25554,"subject":"ticket Test number 2","description":"testing create Many","actor":{"id":281513402,"name":"Elizabeth"},"deleted_at":"2019-11-15T14:30:16Z","previous_state":"new"},{"id":25555,"subject":"ticket with due date","description":"test comment","actor":{"id":281513402,"name":"Elizabeth"},"deleted_at":"2019-11-15T14:30:18Z","previous_state":"new"},{"id":25556,"subject":"ticket with requester","description":"testing requester","actor":{"id":281513402,"name":"Elizabeth"},"deleted_at":"2019-11-15T14:30:20Z","previous_state":"new"},{"id":25557,"subject":"ticket with requester","description":"testing requester","actor":{"id":281513402,"name":"Elizabeth"},"deleted_at":"2019-11-15T14:30:21Z","previous_state":"new"},{"id":25558,"subject":"ticket with ticket form id","description":"testing requester","actor":{"id":281513402,"name":"Elizabeth"},"deleted_at":"2019-11-15T14:30:23Z","previous_state":"new"},{"id":25559,"subject":"my printer is on fire","description":"HELP\nHELP On a New line.","actor":{"id":281513402,"name":"Elizabeth"},"deleted_at":"2019-11-15T14:30:26Z","previous_state":"solved"},{"id":25560,"subject":"my printer is on fire","description":"HELP","actor":{"id":281513402,"name":"Elizabeth"},"deleted_at":"2019-11-15T14:30:30Z","previous_state":"solved"},{"id":25561,"subject":null,"description":"This is a Brand id Test","actor":{"id":281513402,"name":"Elizabeth"},"deleted_at":"2019-11-15T14:30:46Z","previous_state":"new"},{"id":25562,"subject":"test problem","description":"testing incidents with problems","actor":{"id":281513402,"name":"Elizabeth"},"deleted_at":"2019-11-15T14:30:51Z","previous_state":"new"},{"id":25563,"subject":"incident","description":"testing incidents","actor":{"id":281513402,"name":"Elizabeth"},"deleted_at":"2019-11-15T14:30:51Z","previous_state":"new"},{"id":25564,"subject":"my printer is on fire","description":"HELP","actor":{"id":281513402,"name":"Elizabeth"},"deleted_at":"2019-11-15T14:30:53Z","previous_state":"new"},{"id":25565,"subject":"my printer is on fire","description":"HELP","actor":{"id":281513402,"name":"Elizabeth"},"deleted_at":"2019-11-15T14:30:54Z","previous_state":"new"},{"id":25566,"subject":"test problem","description":"testing incidents with problems","actor":{"id":281513402,"name":"Elizabeth"},"deleted_at":"2019-11-15T14:31:03Z","previous_state":"new"},{"id":25569,"subject":null,"description":"This is a Test","actor":{"id":281513402,"name":"Elizabeth"},"deleted_at":"2019-11-15T14:31:33Z","previous_state":"closed"},{"id":25570,"subject":"This is a Test Follow up","description":"HELP","actor":{"id":281513402,"name":"Elizabeth"},"deleted_at":"2019-11-15T14:31:32Z","previous_state":"new"},{"id":25571,"subject":"my printer is on fire","description":"HELP","actor":{"id":281513402,"name":"Elizabeth"},"deleted_at":"2019-11-15T14:31:38Z","previous_state":"new"},{"id":25572,"subject":"Batch Update Ticket 1","description":"HELP","actor":{"id":281513402,"name":"Elizabeth"},"deleted_at":"2019-11-15T14:31:45Z","previous_state":"pending"},{"id":25573,"subject":"Batch Update Ticket 2","description":"HELP","actor":{"id":281513402,"name":"Elizabeth"},"deleted_at":"2019-11-15T14:31:46Z","previous_state":"pending"},{"id":25574,"subject":"my printer is on fire","description":"HELP","actor":{"id":281513402,"name":"Elizabeth"},"deleted_at":"2019-11-15T14:31:48Z","previous_state":"new"},{"id":25575,"subject":"my printer is on fire","description":"HELP","actor":{"id":281513402,"name":"Elizabeth"},"deleted_at":"2019-11-15T14:31:51Z","previous_state":"new"},{"id":25576,"subject":"my printer is on fire","description":"HELP","actor":{"id":281513402,"name":"Elizabeth"},"deleted_at":"2019-11-15T14:31:55Z","previous_state":"new"},{"id":25926,"subject":"my printer is on fire","description":"test description","actor":{"id":281513402,"name":"Elizabeth"},"deleted_at":"2019-11-20T16:48:36Z","previous_state":"solved"},{"id":25927,"subject":"my printer is on fire","description":"test description","actor":{"id":281513402,"name":"Elizabeth"},"deleted_at":"2019-11-20T16:48:36Z","previous_state":"solved"}],"next_page":"https://csharpapi.zendesk.com/api/v2/deleted_tickets.json?page=2","previous_page":null,"count":545}